{
  "overwrite": true,
  "dashboard": {
    "annotations": {
      "list": []
    },
    "editable": true,
    "gnetId": null,
    "graphTooltip": 0,
    "hideControls": false,
    "links": [],
    "refresh": "5s",
    "rows": [
      {
        "collapse": false,
        "height": 368,
        "panels": [
          {
            "aliasColors": {},
            "bars": false,
            "datasource": "nxcals-prometheus",
            "fill": 1,
            "id": 7,
            "legend": {
              "alignAsTable": true,
              "avg": false,
              "current": true,
              "hideZero": true,
              "max": false,
              "min": false,
              "rightSide": false,
              "show": true,
              "total": false,
              "values": true
            },
            "lines": true,
            "linewidth": 1,
            "links": [],
            "nullPointMode": "null",
            "percentage": false,
            "pointradius": 5,
            "points": false,
            "renderer": "flot",
            "seriesOverrides": [],
            "span": 12,
            "stack": false,
            "steppedLine": false,
            "targets": [
              {
                "expr": "nxcals_monitoring_etl_range{process=\"nxcals-etl-hbase\"}",
                "intervalFactor": 2,
                "metric": "nxcals_monitoring_gauge_mock_system_nxcals_monitoring_dev1_byhour_Value",
                "refId": "A",
                "step": 4
              }
            ],
            "thresholds": [],
            "timeFrom": null,
            "timeShift": null,
            "title": "Gobblin HBase ranges",
            "tooltip": {
              "shared": true,
              "sort": 0,
              "value_type": "individual"
            },
            "type": "graph",
            "xaxis": {
              "mode": "time",
              "name": null,
              "show": true,
              "values": []
            },
            "yaxes": [
              {
                "format": "short",
                "label": null,
                "logBase": 1,
                "max": null,
                "min": null,
                "show": true
              },
              {
                "format": "short",
                "label": null,
                "logBase": 1,
                "max": null,
                "min": null,
                "show": true
              }
            ]
          },
          {
            "aliasColors": {},
            "bars": false,
            "datasource": null,
            "fill": 1,
            "id": 8,
            "legend": {
              "alignAsTable": true,
              "avg": false,
              "current": true,
              "hideZero": true,
              "max": false,
              "min": false,
              "show": true,
              "total": false,
              "values": true
            },
            "lines": true,
            "linewidth": 1,
            "links": [],
            "nullPointMode": "null",
            "percentage": false,
            "pointradius": 5,
            "points": false,
            "renderer": "flot",
            "seriesOverrides": [],
            "span": 12,
            "stack": false,
            "steppedLine": false,
            "targets": [
              {
                "expr": "nxcals_monitoring_etl_range{process=\"nxcals-etl-hdfs\"}",
                "intervalFactor": 2,
                "refId": "A",
                "step": 4
              }
            ],
            "thresholds": [],
            "timeFrom": null,
            "timeShift": null,
            "title": "Gobblin Hdfs ranges",
            "tooltip": {
              "shared": true,
              "sort": 0,
              "value_type": "individual"
            },
            "type": "graph",
            "xaxis": {
              "mode": "time",
              "name": null,
              "show": true,
              "values": []
            },
            "yaxes": [
              {
                "format": "short",
                "label": null,
                "logBase": 1,
                "max": null,
                "min": null,
                "show": true
              },
              {
                "format": "short",
                "label": null,
                "logBase": 1,
                "max": null,
                "min": null,
                "show": true
              }
            ]
          }
        ],
        "repeat": null,
        "repeatIteration": null,
        "repeatRowId": null,
        "showTitle": false,
        "title": "Dashboard Row",
        "titleSize": "h6"
      },
      {
        "collapse": false,
        "height": 250,
        "panels": [
          {
            "aliasColors": {},
            "bars": false,
            "datasource": "nxcals-prometheus",
            "editable": true,
            "error": false,
            "fill": 1,
            "grid": {},
            "id": 6,
            "legend": {
              "avg": false,
              "current": false,
              "max": false,
              "min": false,
              "show": true,
              "total": false,
              "values": false
            },
            "lines": true,
            "linewidth": 2,
            "links": [],
            "nullPointMode": "connected",
            "percentage": false,
            "pointradius": 5,
            "points": false,
            "renderer": "flot",
            "seriesOverrides": [],
            "span": 12,
            "stack": false,
            "steppedLine": false,
            "targets": [
              {
                "expr": "kafka:records_rate_per_sec",
                "intervalFactor": 2,
                "refId": "A",
                "step": 4
              }
            ],
            "thresholds": [],
            "timeFrom": null,
            "timeShift": null,
            "title": "Kafka-Records-Count-Sum (rec/sec)",
            "tooltip": {
              "msResolution": true,
              "shared": true,
              "sort": 0,
              "value_type": "cumulative"
            },
            "transparent": false,
            "type": "graph",
            "xaxis": {
              "mode": "time",
              "name": null,
              "show": true,
              "values": []
            },
            "yaxes": [
              {
                "format": "short",
                "label": null,
                "logBase": 1,
                "max": null,
                "min": null,
                "show": true
              },
              {
                "format": "short",
                "label": null,
                "logBase": 1,
                "max": null,
                "min": null,
                "show": true
              }
            ]
          }
        ],
        "repeat": null,
        "repeatIteration": null,
        "repeatRowId": null,
        "showTitle": false,
        "title": "Dashboard Row",
        "titleSize": "h6"
      },
      {
        "collapse": false,
        "height": 250,
        "panels": [
          {
            "aliasColors": {},
            "bars": false,
            "datasource": "nxcals-prometheus",
            "fill": 1,
            "id": 4,
            "legend": {
              "avg": false,
              "current": false,
              "max": false,
              "min": false,
              "show": true,
              "total": false,
              "values": false
            },
            "lines": true,
            "linewidth": 1,
            "links": [],
            "nullPointMode": "null",
            "percentage": false,
            "pointradius": 5,
            "points": false,
            "renderer": "flot",
            "seriesOverrides": [],
            "span": 12,
            "stack": false,
            "steppedLine": false,
            "targets": [
              {
                "expr": "gobblin:hdfs:total_gobblin_to_kafka_records_ratio",
                "intervalFactor": 2,
                "metric": "hdfs:gobblin_to_kafka_records_ratio",
                "refId": "A",
                "step": 4
              }
            ],
            "thresholds": [],
            "timeFrom": null,
            "timeShift": null,
            "title": "Gobblin HDFS to Kafka numer of records ratio",
            "tooltip": {
              "shared": true,
              "sort": 0,
              "value_type": "individual"
            },
            "type": "graph",
            "xaxis": {
              "mode": "time",
              "name": null,
              "show": true,
              "values": []
            },
            "yaxes": [
              {
                "format": "short",
                "label": null,
                "logBase": 1,
                "max": null,
                "min": null,
                "show": true
              },
              {
                "format": "short",
                "label": null,
                "logBase": 1,
                "max": null,
                "min": null,
                "show": true
              }
            ]
          }
        ],
        "repeat": null,
        "repeatIteration": null,
        "repeatRowId": null,
        "showTitle": false,
        "title": "Dashboard Row",
        "titleSize": "h6"
      },
      {
        "collapse": false,
        "height": 250,
        "panels": [
          {
            "aliasColors": {},
            "bars": false,
            "datasource": "nxcals-prometheus",
            "fill": 1,
            "id": 5,
            "legend": {
              "avg": false,
              "current": false,
              "max": false,
              "min": false,
              "show": true,
              "total": false,
              "values": false
            },
            "lines": true,
            "linewidth": 1,
            "links": [],
            "nullPointMode": "null",
            "percentage": false,
            "pointradius": 5,
            "points": false,
            "renderer": "flot",
            "seriesOverrides": [],
            "span": 12,
            "stack": false,
            "steppedLine": false,
            "targets": [
              {
                "expr": "gobblin:hbase:total_gobblin_to_kafka_records_ratio",
                "intervalFactor": 2,
                "metric": "hbase:gobblin_to_kafka_records_ratio",
                "refId": "A",
                "step": 4
              }
            ],
            "thresholds": [],
            "timeFrom": null,
            "timeShift": null,
            "title": "Gobblin HBASE to Kafka numer of records ratio",
            "tooltip": {
              "shared": true,
              "sort": 0,
              "value_type": "individual"
            },
            "type": "graph",
            "xaxis": {
              "mode": "time",
              "name": null,
              "show": true,
              "values": []
            },
            "yaxes": [
              {
                "format": "short",
                "label": null,
                "logBase": 1,
                "max": null,
                "min": null,
                "show": true
              },
              {
                "format": "short",
                "label": null,
                "logBase": 1,
                "max": null,
                "min": null,
                "show": true
              }
            ]
          }
        ],
        "repeat": null,
        "repeatIteration": null,
        "repeatRowId": null,
        "showTitle": false,
        "title": "Dashboard Row",
        "titleSize": "h6"
      },
      {
        "collapse": false,
        "height": 250,
        "panels": [
          {
            "aliasColors": {},
            "bars": false,
            "datasource": "nxcals-prometheus",
            "fill": 1,
            "id": 3,
            "legend": {
              "avg": false,
              "current": false,
              "max": false,
              "min": false,
              "show": true,
              "total": false,
              "values": false
            },
            "lines": true,
            "linewidth": 1,
            "links": [],
            "nullPointMode": "null",
            "percentage": false,
            "pointradius": 5,
            "points": false,
            "renderer": "flot",
            "seriesOverrides": [],
            "span": 12,
            "stack": false,
            "steppedLine": false,
            "targets": [
              {
                "expr": "metrics_gobblin_writer_failed_writes_Value",
                "intervalFactor": 2,
                "refId": "A",
                "step": 4
              }
            ],
            "thresholds": [],
            "timeFrom": null,
            "timeShift": null,
            "title": "Gobblin HDFS - Failed Writes",
            "tooltip": {
              "shared": true,
              "sort": 0,
              "value_type": "individual"
            },
            "type": "graph",
            "xaxis": {
              "mode": "time",
              "name": null,
              "show": true,
              "values": []
            },
            "yaxes": [
              {
                "format": "short",
                "label": null,
                "logBase": 1,
                "max": null,
                "min": null,
                "show": true
              },
              {
                "format": "short",
                "label": null,
                "logBase": 1,
                "max": null,
                "min": null,
                "show": true
              }
            ]
          }
        ],
        "repeat": null,
        "repeatIteration": null,
        "repeatRowId": null,
        "showTitle": false,
        "title": "Dashboard Row",
        "titleSize": "h6"
      }
    ],
    "schemaVersion": 14,
    "style": "dark",
    "tags": [],
    "templating": {
      "list": []
    },
    "time": {
      "from": "now-1h",
      "to": "now"
    },
    "timepicker": {
      "refresh_intervals": [
        "5s",
        "10s",
        "30s",
        "1m",
        "5m",
        "15m",
        "30m",
        "1h",
        "2h",
        "1d"
      ],
      "time_options": [
        "5m",
        "15m",
        "1h",
        "6h",
        "12h",
        "24h",
        "2d",
        "7d",
        "30d"
      ]
    },
    "timezone": "browser",
    "title": "NXCALS-ETL",
    "version": 0
  }
}